[
    {
        "name": "@nativescript/theme",
        "directory": "../../node_modules/@nativescript/theme"
    },
    {
        "name": "nativescript-app-sync",
        "directory": "../../node_modules/nativescript-app-sync"
    },
    {
        "name": "nativescript-toasts",
        "directory": "../../node_modules/nativescript-toasts"
    },
    {
        "name": "nativescript-ui-listview",
        "directory": "../../node_modules/nativescript-ui-listview"
    },
    {
        "name": "tns-core-modules",
        "directory": "../../node_modules/tns-core-modules"
    },
    {
        "name": "nativescript-appversion",
        "directory": "../../node_modules/nativescript-appversion"
    },
    {
        "name": "nativescript-zip",
        "directory": "../../node_modules/nativescript-zip"
    },
    {
        "name": "nativescript-ui-core",
        "directory": "../../node_modules/nativescript-ui-core"
    },
    {
        "name": "@nativescript/core",
        "directory": "../../node_modules/@nativescript/core"
    },
    {
        "name": "tns-core-modules-widgets",
        "directory": "../../node_modules/tns-core-modules-widgets"
    }
]